{
    "sourceFile": "src/Controller/ChoixController.php",
    "activeCommit": 0,
    "commits": [
        {
            "activePatchIndex": 0,
            "patches": [
                {
                    "date": 1701355269572,
                    "content": "Index: \n===================================================================\n--- \n+++ \n"
                }
            ],
            "date": 1701355269572,
            "name": "Commit-0",
            "content": "<?php\n\nnamespace App\\Controller;\n\nuse App\\Entity\\Choix;\nuse App\\Form\\ChoixType;\nuse App\\Repository\\ChoixRepository;\nuse Doctrine\\ORM\\EntityManagerInterface;\nuse Symfony\\Bundle\\FrameworkBundle\\Controller\\AbstractController;\nuse Symfony\\Component\\HttpFoundation\\Request;\nuse Symfony\\Component\\HttpFoundation\\Response;\nuse Symfony\\Component\\Routing\\Annotation\\Route;\n\nclass ChoixController extends AbstractController\n{\n    #[Route('/admin/choix', name: 'app_choix_index', methods: ['GET'])]\n    public function index(ChoixRepository $choixRepository): Response\n    {\n        return $this->render('choix/index.html.twig', [\n            'choixes' => $choixRepository->findAll(),\n        ]);\n    }\n\n    #[Route('/admin/choix/new', name: 'app_choix_new', methods: ['GET', 'POST'])]\n    public function new(Request $request, EntityManagerInterface $entityManager): Response\n    {\n        $choix = new Choix();\n        $form = $this->createForm(ChoixType::class, $choix);\n        $form->handleRequest($request);\n\n        if ($form->isSubmitted() && $form->isValid()) {\n            $entityManager->persist($choix);\n            $entityManager->flush();\n\n            return $this->redirectToRoute('app_choix_index', [], Response::HTTP_SEE_OTHER);\n        }\n\n        return $this->render('choix/new.html.twig', [\n            'choix' => $choix,\n            'form' => $form,\n        ]);\n    }\n\n    #[Route('/admin/choix/{id}', name: 'app_choix_show', methods: ['GET'])]\n    public function show(Choix $choix): Response\n    {\n        return $this->render('choix/show.html.twig', [\n            'choix' => $choix,\n        ]);\n    }\n\n    #[Route('/admin/choix/edit/{id}', name: 'app_choix_edit', methods: ['GET', 'POST'])]\n    public function edit(Request $request, Choix $choix, EntityManagerInterface $entityManager): Response\n    {\n        $form = $this->createForm(ChoixType::class, $choix);\n        $form->handleRequest($request);\n\n        if ($form->isSubmitted() && $form->isValid()) {\n            $entityManager->flush();\n\n            return $this->redirectToRoute('app_choix_index', [], Response::HTTP_SEE_OTHER);\n        }\n\n        return $this->render('choix/edit.html.twig', [\n            'choix' => $choix,\n            'form' => $form,\n        ]);\n    }\n\n    #[Route('/admin/choix/{id}', name: 'app_choix_delete', methods: ['POST'])]\n    public function delete(Request $request, Choix $choix, EntityManagerInterface $entityManager): Response\n    {\n        if ($this->isCsrfTokenValid('delete'.$choix->getId(), $request->request->get('_token'))) {\n            $entityManager->remove($choix);\n            $entityManager->flush();\n        }\n\n        return $this->redirectToRoute('app_choix_index', [], Response::HTTP_SEE_OTHER);\n    }\n}\n"
        }
    ]
}