{
    "sourceFile": "templates/scenario/_form.html.twig",
    "activeCommit": 0,
    "commits": [
        {
            "activePatchIndex": 2,
            "patches": [
                {
                    "date": 1701360637999,
                    "content": "Index: \n===================================================================\n--- \n+++ \n"
                },
                {
                    "date": 1701368312336,
                    "content": "Index: \n===================================================================\n--- \n+++ \n@@ -1,4 +1,14 @@\n {{ form_start(form) }}\n     {{ form_widget(form) }}\n     <button class=\"btn\">{{ button_label|default('Sauvegarde') }}</button>\n {{ form_end(form) }}\n+<style>\n+    form {\n+        max-width: 400px;\n+        margin: 0 auto;\n+        background-color: #f4f4f4;\n+        padding: 20px;\n+        border-radius: 8px;\n+        box-shadow: 0 0 10px rgba(0, 0, 0, 0.1);\n+    }\n+</style>\n\\ No newline at end of file\n"
                },
                {
                    "date": 1701369886928,
                    "content": "Index: \n===================================================================\n--- \n+++ \n@@ -1,7 +1,7 @@\n {{ form_start(form) }}\n     {{ form_widget(form) }}\n-    <button class=\"btn\">{{ button_label|default('Sauvegarde') }}</button>\n+    <button class=\"btn\">{{ button_label|default('Créer') }}</button>\n {{ form_end(form) }}\n <style>\n     form {\n         max-width: 400px;\n"
                }
            ],
            "date": 1701360637999,
            "name": "Commit-0",
            "content": "{{ form_start(form) }}\n    {{ form_widget(form) }}\n    <button class=\"btn\">{{ button_label|default('Sauvegarde') }}</button>\n{{ form_end(form) }}\n"
        }
    ]
}