{
    "sourceFile": "src/Entity/Planete.php",
    "activeCommit": 0,
    "commits": [
        {
            "activePatchIndex": 0,
            "patches": [
                {
                    "date": 1701263542771,
                    "content": "Index: \n===================================================================\n--- \n+++ \n"
                }
            ],
            "date": 1701263542771,
            "name": "Commit-0",
            "content": "<?php\n\nnamespace App\\Entity;\n\nuse App\\Repository\\PlaneteRepository;\nuse Doctrine\\Common\\Collections\\ArrayCollection;\nuse Doctrine\\Common\\Collections\\Collection;\nuse Doctrine\\DBAL\\Types\\Types;\nuse Doctrine\\ORM\\Mapping as ORM;\n\n#[ORM\\Entity(repositoryClass: PlaneteRepository::class)]\nclass Planete\n{\n    #[ORM\\Id]\n    #[ORM\\GeneratedValue]\n    #[ORM\\Column]\n    private ?int $id = null;\n\n    #[ORM\\Column(length: 255)]\n    private ?string $nom = null;\n\n    #[ORM\\Column(type: Types::TEXT, nullable: true)]\n    private ?string $description = null;\n\n    #[ORM\\OneToMany(mappedBy: 'planete', targetEntity: Scenario::class)]\n    private Collection $scenarios;\n\n    public function __construct()\n    {\n        $this->scenarios = new ArrayCollection();\n    }\n\n    public function getId(): ?int\n    {\n        return $this->id;\n    }\n\n    public function getNom(): ?string\n    {\n        return $this->nom;\n    }\n\n    public function setNom(string $nom): static\n    {\n        $this->nom = $nom;\n\n        return $this;\n    }\n\n    public function getDescription(): ?string\n    {\n        return $this->description;\n    }\n\n    public function setDescription(?string $description): static\n    {\n        $this->description = $description;\n\n        return $this;\n    }\n\n    /**\n     * @return Collection<int, Scenario>\n     */\n    public function getScenarios(): Collection\n    {\n        return $this->scenarios;\n    }\n\n    public function addScenario(Scenario $scenario): static\n    {\n        if (!$this->scenarios->contains($scenario)) {\n            $this->scenarios->add($scenario);\n            $scenario->setPlanete($this);\n        }\n\n        return $this;\n    }\n\n    public function removeScenario(Scenario $scenario): static\n    {\n        if ($this->scenarios->removeElement($scenario)) {\n            // set the owning side to null (unless already changed)\n            if ($scenario->getPlanete() === $this) {\n                $scenario->setPlanete(null);\n            }\n        }\n\n        return $this;\n    }\n\n    public function __toString(): string\n    {\n        return $this->nom;\n    }\n}\n"
        }
    ]
}