{
    "sourceFile": "src/Entity/Scenario.php",
    "activeCommit": 0,
    "commits": [
        {
            "activePatchIndex": 3,
            "patches": [
                {
                    "date": 1701263547196,
                    "content": "Index: \n===================================================================\n--- \n+++ \n"
                },
                {
                    "date": 1701334003899,
                    "content": "Index: \n===================================================================\n--- \n+++ \n@@ -4,8 +4,9 @@\n \n use App\\Repository\\ScenarioRepository;\n use Doctrine\\Common\\Collections\\ArrayCollection;\n use Doctrine\\Common\\Collections\\Collection;\n+use Doctrine\\DBAL\\Types\\Types;\n use Doctrine\\ORM\\Mapping as ORM;\n \n #[ORM\\Entity(repositoryClass: ScenarioRepository::class)]\n class Scenario\n@@ -91,5 +92,17 @@\n     public function __toString(): string\n     {\n         return $this->nom;\n     }\n+\n+    public function getDescription(): ?string\n+    {\n+        return $this->description;\n+    }\n+\n+    public function setDescription(string $description): static\n+    {\n+        $this->description = $description;\n+\n+        return $this;\n+    }\n }\n"
                },
                {
                    "date": 1701334019407,
                    "content": "Index: \n===================================================================\n--- \n+++ \n@@ -4,9 +4,8 @@\n \n use App\\Repository\\ScenarioRepository;\n use Doctrine\\Common\\Collections\\ArrayCollection;\n use Doctrine\\Common\\Collections\\Collection;\n-use Doctrine\\DBAL\\Types\\Types;\n use Doctrine\\ORM\\Mapping as ORM;\n \n #[ORM\\Entity(repositoryClass: ScenarioRepository::class)]\n class Scenario\n@@ -92,17 +91,5 @@\n     public function __toString(): string\n     {\n         return $this->nom;\n     }\n-\n-    public function getDescription(): ?string\n-    {\n-        return $this->description;\n-    }\n-\n-    public function setDescription(string $description): static\n-    {\n-        $this->description = $description;\n-\n-        return $this;\n-    }\n }\n"
                },
                {
                    "date": 1701334046484,
                    "content": "Index: \n===================================================================\n--- \n+++ \n@@ -4,8 +4,9 @@\n \n use App\\Repository\\ScenarioRepository;\n use Doctrine\\Common\\Collections\\ArrayCollection;\n use Doctrine\\Common\\Collections\\Collection;\n+use Doctrine\\DBAL\\Types\\Types;\n use Doctrine\\ORM\\Mapping as ORM;\n \n #[ORM\\Entity(repositoryClass: ScenarioRepository::class)]\n class Scenario\n@@ -23,8 +24,11 @@\n \n     #[ORM\\OneToMany(mappedBy: 'scenario', targetEntity: Choix::class)]\n     private Collection $choix;\n \n+    #[ORM\\Column(type: Types::TEXT)]\n+    private ?string $description = null;\n+\n     public function __construct()\n     {\n         $this->choix = new ArrayCollection();\n     }\n@@ -91,5 +95,17 @@\n     public function __toString(): string\n     {\n         return $this->nom;\n     }\n+\n+    public function getDescription(): ?string\n+    {\n+        return $this->description;\n+    }\n+\n+    public function setDescription(string $description): static\n+    {\n+        $this->description = $description;\n+\n+        return $this;\n+    }\n }\n"
                }
            ],
            "date": 1701263547196,
            "name": "Commit-0",
            "content": "<?php\n\nnamespace App\\Entity;\n\nuse App\\Repository\\ScenarioRepository;\nuse Doctrine\\Common\\Collections\\ArrayCollection;\nuse Doctrine\\Common\\Collections\\Collection;\nuse Doctrine\\ORM\\Mapping as ORM;\n\n#[ORM\\Entity(repositoryClass: ScenarioRepository::class)]\nclass Scenario\n{\n    #[ORM\\Id]\n    #[ORM\\GeneratedValue]\n    #[ORM\\Column]\n    private ?int $id = null;\n\n    #[ORM\\Column(length: 255)]\n    private ?string $nom = null;\n\n    #[ORM\\ManyToOne(inversedBy: 'scenarios')]\n    private ?Planete $planete = null;\n\n    #[ORM\\OneToMany(mappedBy: 'scenario', targetEntity: Choix::class)]\n    private Collection $choix;\n\n    public function __construct()\n    {\n        $this->choix = new ArrayCollection();\n    }\n\n    public function getId(): ?int\n    {\n        return $this->id;\n    }\n\n    public function getNom(): ?string\n    {\n        return $this->nom;\n    }\n\n    public function setNom(string $nom): static\n    {\n        $this->nom = $nom;\n\n        return $this;\n    }\n\n    public function getPlanete(): ?Planete\n    {\n        return $this->planete;\n    }\n\n    public function setPlanete(?Planete $planete): static\n    {\n        $this->planete = $planete;\n\n        return $this;\n    }\n\n    /**\n     * @return Collection<int, Choix>\n     */\n    public function getChoix(): Collection\n    {\n        return $this->choix;\n    }\n\n    public function addChoix(Choix $choix): static\n    {\n        if (!$this->choix->contains($choix)) {\n            $this->choix->add($choix);\n            $choix->setScenario($this);\n        }\n\n        return $this;\n    }\n\n    public function removeChoix(Choix $choix): static\n    {\n        if ($this->choix->removeElement($choix)) {\n            // set the owning side to null (unless already changed)\n            if ($choix->getScenario() === $this) {\n                $choix->setScenario(null);\n            }\n        }\n\n        return $this;\n    }\n\n    public function __toString(): string\n    {\n        return $this->nom;\n    }\n}\n"
        }
    ]
}