{
    "sourceFile": "templates/home/index.html.twig",
    "activeCommit": 0,
    "commits": [
        {
            "activePatchIndex": 1,
            "patches": [
                {
                    "date": 1701264290626,
                    "content": "Index: \n===================================================================\n--- \n+++ \n"
                },
                {
                    "date": 1701264306462,
                    "content": "Index: \n===================================================================\n--- \n+++ \n@@ -0,0 +1,14 @@\n+{% extends 'base.html.twig' %}\n+\n+{% block title %}Hello HomeController!{% endblock %}\n+\n+{% block body %}\n+<style>\n+    .example-wrapper { margin: 1em auto; max-width: 800px; width: 95%; font: 18px/1.5 sans-serif; }\n+    .example-wrapper code { background: #F5F5F5; padding: 2px 6px; }\n+</style>\n+\n+<div>\n+    <h2><a href=\"{{ path('app_game') }}\">Tags</a></h2>\n+</div>\n+{% endblock %}\n"
                }
            ],
            "date": 1701264290626,
            "name": "Commit-0",
            "content": "{% extends 'base.html.twig' %}\n\n{% block title %}Hello HomeController!{% endblock %}\n\n{% block body %}\n<style>\n    .example-wrapper { margin: 1em auto; max-width: 800px; width: 95%; font: 18px/1.5 sans-serif; }\n    .example-wrapper code { background: #F5F5F5; padding: 2px 6px; }\n</style>\n\n<div>\n    <h2><a href=\"{{ path('app_tag_index') }}\">Tags</a></h2>\n</div>\n{% endblock %}\n"
        }
    ]
}